P_CISLO;P_TYP;P_TEXT;P_ZAKLAD;P_CM;P_PROCENTO;P_DAN;P_CELKEM
1;4001;202757;25925;31369,25;21;5444,25;31369,25
2;4001;202718;419,83;508;21,00135769;88,17;508
3;4001;202719;12000;14520;21;2520;14520
4;4001;202897;249,59;302;20,99843744;52,41;302
5;4001;203116;224,79;272;21,00182392;47,21;272
6;4001;203117;609,92;738;20,99947534;128,08;738
7;4001;202794;4200;5082;21;882;5082
8;4001;202964;2700;3267;21;567;3267
9;4001;202759;3190;3859,9;21;669,9;3859,9
10;4001;202704;3366;4072,86;21;706,86;4072,86
11;4301;202672;15658,27;18946,51;21,00002108;3288,24;18946,51
12;4301;3000538;4849,2;5867,54;21,00016498;1018,34;5867,54
13;4001;202762;26321,6;31849,14;21,0000152;5527,54;31849,14
14;4301;3000561;56903,11;68852,76;20,99999455;11949,65;68852,76
14;4303;3000561;3042,85;3681,85;21,0000493;639;3681,85
15;4001;202980;2242,97;2714;21,00028088;471,03;2714
16;4001;203113;800;968;21;168;968
17;4001;202741;6832,05;8266,78;20,99999268;1434,73;8266,78
18;4001;202742;2627,82;3179,66;20,99991628;551,84;3179,66
19;4001;202831;2919,2;3532,23;20,99993149;613,03;3532,23
20;4001;203010;23433,89;28355,01;21,00001323;4921,12;28355,01
21;4001;203085;18866,33;22828,26;21,00000371;3961,93;22828,26
22;4001;203087;11011,14;13323,48;21,00000545;2312,34;13323,48
23;4001;203112;6626,65;8018,25;21,00005282;1391,6;8018,25
24;4001;203143;23433,89;28355,01;21,00001323;4921,12;28355,01
25;4001;203219;2200;2662;21;462;2662
26;4001;202986;3943;4771,03;21;828,03;4771,03
27;4001;203146;15334;18554,14;21;3220,14;18554,14
28;4001;203256;715,5;865,75;20,99930119;150,25;865,75
29;4001;203304;3833,9;4639,02;21,00002608;805,12;4639,02
30;4001;202824;4500;5445;21;945;5445
31;4001;203274;7500;9075;21;1575;9075
32;4001;202858;10810,74;13081;21,00004255;2270,26;13081
33;4001;202642;-18305,79;-22150;20,99996777;-3844,21;-22150
34;4301;3000553;6095,54;7375,6;20,99994422;1280,06;7375,6
34;4303;3000553;1359,23;1644,67;21,00012507;285,44;1644,67
35;4301;203265;20350,83;24624,5043;21;4273,6743;24624,5043
36;4301;202671;4853,6;5872,86;21,00008241;1019,26;5872,86
37;4301;202680;6252,44;7565,45;20,99996161;1313,01;7565,45
38;4301;202868;2677,03;3239,21;21,00013821;562,18;3239,21
39;4301;3000469;9371,15;11339,09;20,99998399;1967,94;11339,09
40;4301;3000585;151922,52;183826,25;21,00000053;31903,73;183826,25
37;4303;202680;385,76;466,77;21,00010369;81,01;466,77
38;4303;202868;385,76;466,77;21,00010369;81,01;466,77
39;4303;3000469;385,76;466,77;21,00010369;81,01;466,77
41;4001;202974;97550;118035,5;21;20485,5;118035,5
42;4001;203031;42750;51727,5;21;8977,5;51727,5
43;4303;3000468;150;181,5;21;31,5;181,5
44;4001;203107;12736,36;15411;21,00003455;2674,64;15411
45;4001;202949;1023;1237,83;21;214,83;1237,83
46;4001;203305;940;1137,4;21;197,4;1137,4
47;4001;202698;9689,53;11724,33;20,99998658;2034,8;11724,33
48;4001;202716;3520;4259,2;21;739,2;4259,2
49;4001;202861;5865,56;7097,33;21,00004092;1231,77;7097,33
50;4001;202932;6283,63;7603,19;20,9999634;1319,56;7603,19
51;4001;203115;8278,38;10016,84;21,00000242;1738,46;10016,84
52;4001;203123;36,33;43,96;21,00192678;7,63;43,96
53;4001;203199;4258;5152,18;21;894,18;5152,18
54;4001;203202;12009,69;14531,72;20,9999592;2522,03;14531,72
55;4001;202706;5520,39;6679,67;20,99996558;1159,28;6679,67
56;4001;202737;1534,31;1856,52;21,00031936;322,21;1856,52
57;4001;202857;21899,97;26498,96;20,9999831;4598,99;26498,96
58;4001;202904;5520,39;6679,67;20,99996558;1159,28;6679,67
59;4001;202976;1278,6;1547,11;21,00031284;268,51;1547,11
60;4001;203204;6869,75;8312,4;21,00003639;1442,65;8312,4
61;4301;203288;32811,33;39701,7093;21;6890,3793;39701,7093
62;4001;203298;4000;4840;21;840;4840
63;4301;202616;27536,6;33319,29;21,00001453;5782,69;33319,29
64;4301;3000699;16375,17;19813,95;20,99996519;3438,78;19813,95
65;4301;202640;546,8;661,63;21,00036576;114,83;661,63
66;4301;202874;2293,34;2774,94;20,99993895;481,6;2774,94
67;4301;3000451;0;0;21;0;0
68;4301;3000452;0;0;21;0;0
69;4301;202615;46982,58;56848,92;20,99999617;9866,34;56848,92
70;4301;202612;9631,08;11653,61;21,00003323;2022,53;11653,61
71;4301;202613;388,35;469,9;20,99909875;81,55;469,9
72;4301;202614;5087,39;6155,74;20,99996265;1068,35;6155,74
73;4301;3000534;13669,92;16540,6;20,99997659;2870,68;16540,6
74;4301;203261;4711,98;5701,4958;21;989,5158;5701,4958
75;4301;203149;19303,58;23357,3318;21;4053,7518;23357,3318
76;4301;202599;10200,66;12342,8;21,00001372;2142,14;12342,8
77;4301;202724;538,51;651,6;21,00053852;113,09;651,6
78;4301;202639;62040,72;75069,27;20,99999807;13028,55;75069,27
79;4301;3000722;7316,96;8853,52;20,99997813;1536,56;8853,52
80;4301;202607;41290,41;49961,4;21,00000945;8670,99;49961,4
81;4301;202618;2733,98;3308,12;21,00015362;574,14;3308,12
82;4301;202619;16310,7;19735,95;21,00001839;3425,25;19735,95
83;4301;202620;57551,92;69637,82;20,99999444;12085,9;69637,82
84;4301;202621;504,86;610,88;20,99988116;106,02;610,88
85;4301;202622;160,52;194,23;21,00049838;33,71;194,23
86;4301;202623;1961,17;2373,02;21,00021926;411,85;2373,02
87;4301;202624;1180,58;1428,5;20,99984753;247,92;1428,5
88;4301;202625;204,79;247,8;21,00200205;43,01;247,8
89;4301;202626;31847,29;38535,22;20,99999717;6687,93;38535,22
90;4301;202627;9475,74;11465,65;21,00004855;1989,91;11465,65
91;4301;202628;49475,79;59865,71;21,00000829;10389,92;59865,71
92;4301;202629;3075,73;3721,63;20,99989271;645,9;3721,63
93;4301;202630;4336,58;5247,26;20,99995849;910,68;5247,26
94;4301;202631;225,24;272,54;20,99982241;47,3;272,54
95;4301;202632;2122,98;2568,81;21,00019784;445,83;2568,81
96;4301;202633;13773,48;16665,91;20,99999419;2892,43;16665,91
97;4301;202634;3171,27;3837,24;21,00010406;665,97;3837,24
98;4301;202635;642,07;776,9;20,99926799;134,83;776,9
99;4301;202636;8555,09;10351,66;21,00001286;1796,57;10351,66
100;4301;202637;6397,42;7740,88;21,00002814;1343,46;7740,88
101;4301;202641;118,06;142,85;20,99779773;24,79;142,85
102;4301;202725;9488,43;11481;20,99999684;1992,57;11481
103;4301;202726;25631,1;31013,63;20,9999961;5382,53;31013,63
104;4301;202727;207,12;250,62;21,0023175;43,5;250,62
105;4301;202728;295,15;357,13;20,99949178;61,98;357,13
106;4301;202729;4404,15;5329,02;20,99996594;924,87;5329,02
107;4301;202730;43735,72;52920,22;20,99999726;9184,5;52920,22
108;4301;202731;18863,45;22824,77;20,99997614;3961,32;22824,77
109;4301;202732;693,85;839,56;21,00021619;145,71;839,56
110;4301;202733;1418,77;1716,71;20,99988018;297,94;1716,71
111;4301;202734;621,36;751,85;21,00070812;130,49;751,85
112;4301;202735;2778,51;3362;21,00010437;583,49;3362
113;4301;202956;18257,63;22091,73;20,9999874;3834,1;22091,73
114;4301;3000497;0;0,01;21;0,01;0,01
115;4301;3000507;5669,91;6860,59;20,9999806;1190,68;6860,59
116;4301;3000508;8284,8;10024,61;21,00002414;1739,81;10024,61
117;4301;3000509;127,12;153,81;20,99590938;26,69;153,81
118;4301;3000510;1501,62;1816,96;20,99998668;315,34;1816,96
119;4301;3000511;59826,61;72390,2;21,00000318;12563,59;72390,2
120;4301;3000512;5602,6;6779,15;21,0000714;1176,55;6779,15
121;4301;3000513;3226,93;3904,59;21,00014565;677,66;3904,59
122;4301;3000514;6449,2;7803,52;20,99981393;1354,32;7803,52
123;4301;3000515;7756,64;9385,53;20,99994327;1628,89;9385,53
124;4301;3000516;3624,6;4385,76;20,99983446;761,16;4385,76
125;4301;3000517;1118,45;1353,32;20,99959766;234,87;1353,32
126;4301;3000518;814,5;985,55;21,00061387;171,05;985,55
127;4301;3000519;2212,82;2677,51;20,99990058;464,69;2677,51
128;4301;3000520;265,37;321,1;21,00086671;55,73;321,1
129;4301;3000521;693,85;839,56;21,00021619;145,71;839,56
130;4301;3000522;5178;6265,38;21;1087,38;6265,38
131;4301;3000523;3177,22;3844,44;21,0001196;667,22;3844,44
132;4301;3000524;94,24;114,03;20,99957555;19,79;114,03
133;4301;3000525;5654,38;6841,8;21,00000354;1187,42;6841,8
134;4301;3000526;1619,42;1959,5;21,00011115;340,08;1959,5
135;4301;3000527;17708,76;21427,59;20,99994579;3718,83;21427,59
136;4301;3000528;12820,73;15513,08;20,99997426;2692,35;15513,08
137;4301;3000529;284,79;344,59;20,9979283;59,8;344,59
138;4301;3000530;678,84;821,39;20,99905722;142,55;821,39
139;4301;3000531;461,88;558,88;21,00112583;97;558,88
140;4301;3000532;900,97;1090,17;20,99958933;189,2;1090,17
141;4301;3000533;1488,68;1801,3;20,99981191;312,62;1801,3
142;4301;3000535;16375,43;19814,27;20,99999817;3438,84;19814,27
143;4301;3000536;89739,92;108585,3;20,99999643;18845,38;108585,3
144;4301;3000645;13793,48;16690,11;20,9999942;2896,63;16690,11
145;4301;3000711;2166,9;2621,95;21,00004615;455,05;2621,95
146;4301;203077;18568,31;22467,6551;21;3899,3451;22467,6551
147;4301;203076;26397,44;31940,9024;21;5543,4624;31940,9024
148;4301;203075;65118,79;78793,7359;21;13674,9459;78793,7359
149;4301;203072;3336,19;4036,7899;21;700,5999;4036,7899
150;4301;203071;40876,94;49461,0974;21;8584,1574;49461,0974
151;4301;203057;2019,42;2443,4982;21;424,0782;2443,4982
152;4301;203055;1910,68;2311,9228;21;401,2428;2311,9228
153;4301;203053;4784,47;5789,2087;21;1004,7387;5789,2087
154;4301;203051;31844,7;38532,087;21;6687,387;38532,087
155;4301;203048;36970,92;44734,8132;21;7763,8932;44734,8132
156;4301;203045;459,29;555,7409;21;96,4509;555,7409
157;4301;203173;9013,86;10906,7706;21;1892,9106;10906,7706
158;4301;203330;2916,76;3529,2796;21;612,5196;3529,2796
159;4301;203171;295,15;357,1315;21;61,9815;357,1315
160;4301;203325;12005,71;14526,9091;21;2521,1991;14526,9091
161;4301;203169;1139,16;1378,3836;21;239,2236;1378,3836
162;4301;203168;176,05;213,0205;21;36,9705;213,0205
163;4301;203167;724,92;877,1532;21;152,2332;877,1532
164;4301;203166;300,32;363,3872;21;63,0672;363,3872
165;4301;203165;2291,27;2772,4367;21;481,1667;2772,4367
166;4301;203164;15508,11;18764,8131;21;3256,7031;18764,8131
167;4301;203163;25232,39;30531,1919;21;5298,8019;30531,1919
168;4301;203162;1853,72;2243,0012;21;389,2812;2243,0012
169;4301;203161;1656,96;2004,9216;21;347,9616;2004,9216
170;4301;203160;4154,05;5026,4005;21;872,3505;5026,4005
171;4301;203159;1395,47;1688,5187;21;293,0487;1688,5187
172;4301;203158;4704,21;5692,0941;21;987,8841;5692,0941
173;4301;203157;1025,24;1240,5404;21;215,3004;1240,5404
174;4301;203156;88886,84;107553,0764;21;18666,2364;107553,0764
175;4301;203155;6924,02;8378,0642;21;1454,0442;8378,0642
176;4301;203154;26148,9;31640,169;21;5491,269;31640,169
177;4301;203152;26058,29;31530,5309;21;5472,2409;31530,5309
178;4301;203151;59873,21;72446,5841;21;12573,3741;72446,5841
179;4301;203150;25755,37;31163,9977;21;5408,6277;31163,9977
180;4301;203329;253,69;306,9649;21;53,2749;306,9649
181;4301;203328;101250,74;122513,3954;21;21262,6554;122513,3954
182;4301;203326;35317,66;42734,3686;21;7416,7086;42734,3686
160;4301;203325;12005,71;14526,9091;21;2521,1991;14526,9091
183;4301;203295;56233,45;68042,4745;21;11809,0245;68042,4745
184;4001;203314;4000;4840;21;840;4840
185;4001;202785;2000;2420;21;420;2420
186;4001;202784;2500;3025;21;525;3025
187;4301;3000546;7339,82;8881,18;20,99997003;1541,36;8881,18
188;4001;202763;16912,28;20463,86;21,0000071;3551,58;20463,86
189;4301;202875;27339,84;33081,21;21,00001317;5741,37;33081,21
190;4001;202806;5500;6655;21;1155;6655
191;4301;202866;170083,58;205801,13;20,99999894;35717,55;205801,13
192;4001;202908;8390,08;10152;21,00003814;1761,92;10152
193;4001;203086;6474,38;7834;21,00000309;1359,62;7834
194;4001;202819;1300;1573;21;273;1573
195;4001;203316;1800;2178;21;378;2178
196;4001;203122;724,79;877;21,00056568;152,21;877
197;4301;3000623;79459;96145,39;21;16686,39;96145,39
198;4001;202736;3547,11;4292;20,9999126;744,89;4292
199;4001;202978;7390,08;8942;21,0000433;1551,92;8942
200;4001;203145;14780,17;17884;20,99996143;3103,83;17884
201;4001;202933;16000;19360;21;3360;19360
202;4001;202764;61586,12;74519,21;21,00000779;12933,09;74519,21
203;4001;202765;9501,62;11496,96;20,9999979;1995,34;11496,96
204;4001;202766;460,74;557,5;21,00099839;96,76;557,5
205;4001;1449;280,66;339,6;21,00049882;58,94;339,6
206;4001;1450;359,26;434,7;20,99871959;75,44;434,7
207;4001;1451;463,61;560,97;21,00040983;97,36;560,97
208;4001;1452;1688,26;2042,8;21,00031986;354,54;2042,8
209;4001;1453;317,52;384,2;21,00025195;66,68;384,2
210;4001;1456;1268,2;1534,52;20,9998423;266,32;1534,52
211;4001;1457;2265,29;2741;20,99996027;475,71;2741
212;4001;1458;5893,39;7131;20,99996776;1237,61;7131
213;4001;1461;13278,3;16066,7;20,99967616;2788,4;16066,7
214;4001;1462;13343,6;16145,8;21,00032975;2802,2;16145,8
215;4001;1463;13167,8;15933;20,99971142;2765,2;15933
216;4001;1464;10448,6;12642,8;20,99994258;2194,2;12642,8
217;4001;1465;12492,2;15115,6;21,00030419;2623,4;15115,6
218;4001;1490;862,78;1044;21,00419574;181,22;1044
219;4001;1494;1566,69;1895,7;21,00032553;329,01;1895,7
220;4001;202739;1474,38;1784;21,00001357;309,62;1784
221;4001;202743;4609,09;5577;21,00002387;967,91;5577
222;4001;202747;4319,83;5227;21,00013195;907,17;5227
223;4001;202828;3395,87;4109;20,99992049;713,13;4109
224;4001;202834;288;348,48;21;60,48;348,48
225;4001;202853;1990,08;2408;21,0001608;417,92;2408
226;4001;202902;5208;6301,68;21;1093,68;6301,68
227;4001;202912;1988,43;2406;20,99998491;417,57;2406
228;4001;202950;7800;9438;21;1638;9438
229;4001;203084;552,07;668;20,99914866;115,93;668
230;4001;203108;266,12;322;20,99804599;55,88;322
231;4001;203211;323,97;392;20,99885792;68,03;392
232;4001;203212;719,01;870;20,99970793;150,99;870
233;4001;203213;121,48;147;21,00757326;25,52;147
234;4001;203255;2519,01;3048;20,99991663;528,99;3048
235;4303;202695;2500;3025;21;525;3025
236;4303;202679;48163,17;58277,44;21,00000893;10114,27;58277,44
237;4303;3000601;455673,84;551365,35;21,00000079;95691,51;551365,35
238;4303;3000602;42334,81;51225,12;20,99999976;8890,31;51225,12
239;4001;202854;3386;4097,06;21;711,06;4097,06
240;4001;202750;2339,67;2831;20,99997008;491,33;2831
241;4001;203306;21885,12;26481;21,00002193;4595,88;26481
242;4001;202738;680;822,8;21;142,8;822,8
243;4001;203121;1120;1355,2;21;235,2;1355,2
244;4301;202678;48880,32;59145,19;21,00000573;10264,87;59145,19
245;4301;3000471;13793,42;16690,04;21,00001305;2896,62;16690,04
244;4303;202678;1294,5;1566,35;21,00038625;271,85;1566,35
245;4303;3000471;1294,5;1566,35;21,00038625;271,85;1566,35
246;4301;202696;28514,21;34502,19;20,99998562;5987,98;34502,19
247;4301;3000459;8227,32;9955,06;21,00003403;1727,74;9955,06
248;4301;202670;152716,57;184787,05;21,0000002;32070,48;184787,05
249;4301;202876;21278,47;25746,95;21,00000611;4468,48;25746,95
250;4301;202877;2461,62;2978,56;20,99999188;516,94;2978,56
251;4301;3000475;170,87;206,75;20,99841985;35,88;206,75
252;4301;3000587;26228,12;31736,03;21,0000183;5507,91;31736,03
253;4301;3000588;28543,73;34537,91;20,99998844;5994,18;34537,91
254;4301;3000710;7091,01;8580,12;20,99997039;1489,11;8580,12
255;4001;202903;359,6;435,12;21,00111235;75,52;435,12
256;4001;202975;7218,09;8733,89;21,00001524;1515,8;8733,89
257;4001;202988;4462,7;5399,87;21,00006722;937,17;5399,87
258;4301;3000470;269;325,49;21;56,49;325,49
258;4303;3000470;204,53;247,48;20,9993644;42,95;247,48
259;4001;203259;2555,37;3092;21,00009001;536,63;3092
260;4301;3000465;5592,24;6766,61;20,99999285;1174,37;6766,61
261;4001;202744;33724,4;40806,5;20,99992883;7082,1;40806,5
262;4001;202910;24372,6;29490,9;21,00022156;5118,3;29490,9
263;4001;203254;71105,4;86037,5;20,99995218;14932,1;86037,5
264;4001;202849;10950;13249,5;21;2299,5;13249,5
265;4301;202666;3702,27;4479,75;21,00008913;777,48;4479,75
265;4303;202666;398,71;482,44;21,00022573;83,73;482,44
266;4301;3000453;12928,17;15643,09;21,00003326;2714,92;15643,09
267;4301;202883;13096,97;15847,33;20,99997175;2750,36;15847,33
267;4303;202883;647,25;783,17;20,99961375;135,92;783,17
268;4301;3000454;3291,65;3982,9;21,00010633;691,25;3982,9
269;4301;202867;34511,37;41758,76;21,00000666;7247,39;41758,76
270;4301;203278;8600,41;10406,4961;21;1806,0861;10406,4961
271;4001;202942;1600;1936;21;336;1936
272;4301;3000541;31805,87;38485,1;20,99999151;6679,23;38485,1
273;4001;202833;6697;8103,37;21;1406,37;8103,37
274;4301;3000696;47635,79;57639,3;20,99998761;10003,51;57639,3
275;4301;202878;4147,06;5017,94;20,9999373;870,88;5017,94
276;4001;203215;3300;3993;21;693;3993
277;4001;203182;91492,7;110706,17;21,00000328;19213,47;110706,17
278;4001;202931;27161,1;32864,84;20,99966496;5703,74;32864,84
279;4001;203126;14106,72;17069,03;20,99928261;2962,31;17069,03
280;4001;203210;28290,22;34231,27;21,00036691;5941,05;34231,27
281;4301;202882;28721,07;34752,49;20,99998364;6031,42;34752,49
282;4001;202697;127342,68;154084,63;20,99998995;26741,95;154084,63
283;4001;202702;95083,56;115051,11;21,00000252;19967,55;115051,11
284;4001;202951;75343,5;91165,64;21,00000664;15822,14;91165,64
285;4001;203017;15133,3;18311,28;20,9999141;3177,98;18311,28
286;4001;203280;260,16;314,79;20,99861624;54,63;314,79
287;4001;203296;71864,25;86955,73;20,99998261;15091,48;86955,73
288;4301;202869;3715,22;4495,42;21,00010228;780,2;4495,42
289;4301;3000476;3650,49;4417,09;20,99992056;766,6;4417,09
290;4301;3000549;5229,78;6328,03;20,99992734;1098,25;6328,03
291;4301;3000626;2330,1;2819,42;20,99995708;489,32;2819,42
290;4303;3000549;233,01;281,94;20,99909875;48,93;281,94
292;4001;202795;15000;18150;21;3150;18150
293;4001;203138;8200;9922;21;1722;9922
294;4001;202960;4200;5082;21;882;5082
295;4301;202862;48575,85;58776,78;21,00000309;10200,93;58776,78
296;4301;203279;45190,32;54680,2872;21;9489,9672;54680,2872
297;4301;3000477;13259,3;16043,76;21,00005279;2784,46;16043,76
298;4001;202899;270;326,7;21;56,7;326,7
299;4001;202776;1700;2057;21;357;2057
300;4301;202684;8939,56;10816,87;21,00002685;1877,31;10816,87
301;4301;202689;15976,72;19331,83;20,99999249;3355,11;19331,83
302;4301;202881;2178,64;2636,15;20,99979804;457,51;2636,15
303;4301;202884;9625,9;11647,34;21,00001039;2021,44;11647,34
300;4303;202684;1035,6;1253,08;21,00038625;217,48;1253,08
301;4303;202689;1035,6;1253,08;21,00038625;217,48;1253,08
302;4303;202881;1035,6;1253,08;21,00038625;217,48;1253,08
303;4303;202884;1035,6;1253,08;21,00038625;217,48;1253,08
304;4001;202705;3280;3968,8;21;688,8;3968,8
305;4001;202711;5000;6050;21;1050;6050
306;4001;202721;2010;2432,1;21;422,1;2432,1
307;4001;202748;8286;10026,06;21;1740,06;10026,06
308;4001;202749;3600;4356;21;756;4356
309;4001;202832;1200;1452;21;252;1452
310;4001;202901;12500;15125;21;2625;15125
311;4001;202906;27401;33155,21;21;5754,21;33155,21
312;4001;202911;1330;1609,3;21;279,3;1609,3
313;4001;202982;1440;1742,4;21;302,4;1742,4
314;4001;202984;11810;14290,1;21;2480,1;14290,1
315;4001;202989;23940;28967,4;21;5027,4;28967,4
316;4001;203012;1850;2238,5;21;388,5;2238,5
317;4001;203021;2660;3218,6;21;558,6;3218,6
318;4001;203083;1000;1210;21;210;1210
319;4001;203178;1150;1391,5;21;241,5;1391,5
320;4001;203206;3163,5;3827,84;21,00015805;664,34;3827,84
321;4001;203237;1500;1815;21;315;1815
322;4001;203238;3588,64;4342,25;20,99987739;753,61;4342,25
323;4001;203257;2850;3448,5;21;598,5;3448,5
324;4001;203267;19870;24042,7;21;4172,7;24042,7
325;4001;203321;2280;2758,8;21;478,8;2758,8
326;4001;202797;3200;3872;21;672;3872
327;4001;202774;2000;2420;21;420;2420
328;4001;202803;2000;2420;21;420;2420
329;4001;202822;1800;2178;21;378;2178
330;4001;202941;2000;2420;21;420;2420
331;4001;202959;1800;2178;21;378;2178
332;4001;203099;2000;2420;21;420;2420
333;4001;203218;1800;2178;21;378;2178
334;4001;203317;2000;2420;21;420;2420
335;4301;3000586;35393,44;42826,07;21,00002147;7432,63;42826,07
336;4001;202779;4500;5445;21;945;5445
337;4001;202780;4000;4840;21;840;4840
338;4301;203287;6545,73;7920,3333;21;1374,6033;7920,3333
339;4301;3000632;20379,05;24658,65;20,99999755;4279,6;24658,65
340;4303;202870;66250,44;80163,03;20,99999638;13912,59;80163,03
339;4303;3000632;815,54;986,8;20,9995831;171,26;986,8
341;4301;3000501;180724,63;218676,82;21,00000979;37952,19;218676,82
342;4001;202723;800;968;21;168;968
343;4001;202896;1093;1322,53;21;229,53;1322,53
344;4001;203323;17560;21247,6;21;3687,6;21247,6
345;4001;203331;3000;3630;21;630;3630
346;4301;202871;11514,58;13932,64;20,99998437;2418,06;13932,64
346;4303;202871;835,47;1010,92;21,0001556;175,45;1010,92
347;4301;202681;16491,93;19955,24;21,0000285;3463,31;19955,24
348;4301;3000482;11987,07;14504,36;21,00004421;2517,29;14504,36
349;4301;202668;38929,24;47104,38;20,99999897;8175,14;47104,38
350;4301;202880;86423,15;104572,01;20,99999826;18148,86;104572,01
351;4301;3000472;22905,92;27716,17;21,00002969;4810,25;27716,17
352;4301;203293;158131,26;191338,8246;21;33207,5646;191338,8246
353;4301;203193;114848,3;138966,443;21;24118,143;138966,443
354;4301;3000489;83123,99;100580,03;21,00000253;17456,04;100580,03
354;4303;3000489;69,9;84,58;21,00143062;14,68;84,58
355;4001;202981;3080;3726,8;21;646,8;3726,8
356;4301;203189;6614,9;8004,029;21;1389,129;8004,029
357;4001;202760;245337;296857,77;21;51520,77;296857,77
358;4001;202837;5185,77;6274,78;20,99996722;1089,01;6274,78
359;4301;202686;25471,62;30820,66;20,99999921;5349,04;30820,66
360;4301;3000537;38969,63;47153,26;21,00001976;8183,63;47153,26
361;4001;203139;1800;2178;21;378;2178
362;4001;203253;8329,75;10079;21,00003001;1749,25;10079
363;4301;3000484;1879,61;2274,33;21,00010108;394,72;2274,33
364;4301;3000485;126,86;153,5;20,99952704;26,64;153,5
363;4303;3000484;310,68;375,92;20,99909875;65,24;375,92
365;4001;203333;47836;57881,56;21;10045,56;57881,56
366;4001;202773;4000;4840;21;840;4840
367;4001;202699;6186,68;7485,88;20,99995474;1299,2;7485,88
368;4001;202701;11332,92;13712,83;20,99997176;2379,91;13712,83
369;4001;202703;52488,61;63511,22;21,00000362;11022,61;63511,22
370;4001;202717;7500;9075;21;1575;9075
371;4001;202859;9063,14;10966,4;21,00000662;1903,26;10966,4
372;4001;202894;19425,03;23504,29;21,00001905;4079,26;23504,29
373;4001;202895;9506,52;11502,89;21,00000842;1996,37;11502,89
374;4001;202973;9637,53;11661,41;20,99998651;2023,88;11661,41
375;4001;203114;8360,81;10116,58;20,9999988;1755,77;10116,58
376;4001;203125;16638,1;20132,1;20,99999399;3494;20132,1
377;4001;203148;7722,73;9344,5;20,99995727;1621,77;9344,5
378;4001;203203;-679,63;-822,35;20,99966158;-142,72;-822,35
379;4001;203244;10447,45;12641,42;21,00005264;2193,97;12641,42
380;4001;202898;32980;39905,8;21;6925,8;39905,8
381;4001;202900;6375,97;7714,93;21,00009881;1338,96;7714,93
382;4301;3000621;25260,87;30565,65;20,99998931;5304,78;30565,65
383;4001;202710;3088,7;3737,33;21,00009713;648,63;3737,33
384;4001;202720;2195,3;2656,31;20,99986334;461,01;2656,31
385;4001;202850;29578;35789,38;21;6211,38;35789,38
386;4001;202997;10500;12705;21;2205;12705
387;4001;203014;45556,6;55123,49;21,00000878;9566,89;55123,49
361;4001;203139;1800;2178;21;378;2178
388;4001;203144;5859;7089,39;21;1230,39;7089,39
389;4001;203200;10102,4;12223,9;20,99996041;2121,5;12223,9
390;4001;203201;12920;15633,2;21;2713,2;15633,2
391;4001;202987;2000;2420;21;420;2420
392;4001;202770;1800;2178;21;378;2178
393;4001;203103;1800;2178;21;378;2178
394;4001;202919;1600;1936;21;336;1936
395;4001;202855;12335,55;14926,01;20,99995541;2590,46;14926,01
396;4001;202977;28633,47;34646,67;21,00059825;6013,2;34646,67
397;4001;203297;7065,6;8549,27;20,99849977;1483,67;8549,27
398;4001;202917;2200;2662;21;462;2662
399;4001;202755;19668;23798,28;21;4130,28;23798,28
400;4001;203005;32469;39287,49;21;6818,49;39287,49
401;4001;202772;3000;3630;21;630;3630
402;4301;3000480;77670;93980,7;21;16310,7;93980,7
403;4001;202999;6639,7;8034,04;21,00004518;1394,34;8034,04
404;4001;203100;3500;4235;21;735;4235
405;4001;202777;1800;2178;21;378;2178
406;4001;203092;2000;2420;21;420;2420
407;4001;202740;45000;54450;21;9450;54450
408;4001;203234;20751;25108,71;21;4357,71;25108,71
409;4001;202829;38487,3;46569,63;20,99999221;8082,33;46569,63
410;4001;203315;2400;2904;21;504;2904
411;4001;202791;5000;6050;21;1050;6050
412;4303;3000647;4213,6;5098,46;21,00009493;884,86;5098,46
413;4001;202823;4700;5687;21;987;5687
414;4001;203309;3500;4235;21;735;4235
415;4301;202676;17104,46;20696,4;21,00001988;3591,94;20696,4
416;4001;203313;700;847;21;147;847
417;4301;202675;32033,18;38760,15;21,00000687;6726,97;38760,15
417;4303;202675;3667,32;4437,45;20,99980367;770,13;4437,45
418;4301;203284;129973,06;157267,4026;21;27294,3426;157267,4026
419;4301;203263;29203,92;35336,7432;21;6132,8232;35336,7432
420;4301;3000547;28453,11;34428,26;20,9999891;5975,15;34428,26
421;4001;203027;3500;4235;21;735;4235
422;4301;202682;3533,14;4275,1;21,00001698;741,96;4275,1
422;4303;202682;1275,5;1543,36;21,000392;267,86;1543,36
423;4001;202938;3000;3630;21;630;3630
424;4001;203312;4300;5203;21;903;5203
425;4301;202677;50573,78;61194,27;20,99999249;10620,49;61194,27
426;4001;202722;76500;92565;21;16065;92565
427;4001;202856;4560;5517,6;21;957,6;5517,6
428;4301;3000635;16828,5;20362,49;21,00002971;3533,99;20362,49
428;4303;3000635;776,7;939,81;21,00038625;163,11;939,81
429;4001;202792;800;968;21;168;968
430;4001;202793;2300;2783;21;483;2783
431;4001;202804;4000;4840;21;840;4840
432;4001;202805;1900;2299;21;399;2299
433;4001;203311;1100;1331;21;231;1331
434;4301;203275;5859,98;7090,5758;21;1230,5958;7090,5758
435;4301;3000563;597,8;723,34;21,00033456;125,54;723,34
436;4301;3000564;55192,3;66782,68;20,99999456;11590,38;66782,68
437;4001;203198;5850;7078,5;21;1228,5;7078,5
438;4001;203106;3141;3800,61;21;659,61;3800,61
439;4001;203105;8620;10430,2;21;1810,2;10430,2
440;4001;202758;20691,7;25037,01;21,00025614;4345,31;25037,01
441;4301;202667;131567,28;159196,41;21,00000091;27629,13;159196,41
442;4301;202879;68810,96;83261,26;20,99999767;14450,3;83261,26
443;4301;3000559;4239,49;5129,78;20,9999316;890,29;5129,78
444;4301;3000581;119094;144103,74;21;25009,74;144103,74
443;4303;3000559;517,8;626,54;21,00038625;108,74;626,54
445;4301;203032;161886,29;195882,4109;21;33996,1209;195882,4109
446;4301;203292;242049,63;292880,0523;21;50830,4223;292880,0523
447;4001;202920;31343;37925,03;21;6582,03;37925,03
448;4001;202921;12185;14743,85;21;2558,85;14743,85
449;4001;202922;76401;92445,21;21;16044,21;92445,21
450;4001;202923;41594;50328,74;21;8734,74;50328,74
451;4001;203270;87145;105445,45;21;18300,45;105445,45
452;4001;203291;31036;37553,56;21;6517,56;37553,56
453;4301;3000580;76217,57;92223,26;21,00000039;16005,69;92223,26
454;4301;3000717;10009,07;12110,97;20,99995304;2101,9;12110,97
455;4001;202715;3575,15;4325,93;20,99995804;750,78;4325,93
456;4001;202905;4279,7;5178,44;21,0000701;898,74;5178,44
457;4001;203310;2000;2420;21;420;2420
458;4001;202713;77,7;94,02;21,003861;16,32;94,02
459;4001;203082;30,15;36,49;21,02819237;6,34;36,49
460;4001;203000;13800;16698;21;2898;16698
461;4301;202865;29910,2;36191,34;20,99999331;6281,14;36191,34
462;4301;3000539;161260,78;195125,54;20,99999764;33864,76;195125,54
463;4001;202787;2000;2420;21;420;2420
464;4001;202788;2300;2783;21;483;2783
465;4001;203089;2000;2420;21;420;2420
466;4001;203090;2000;2420;21;420;2420
467;4001;203091;2100;2541;21;441;2541
468;4001;203318;3000;3630;21;630;3630
469;4001;202916;2500;3025;21;525;3025
470;4001;202836;14921,86;18055,45;20,99999598;3133,59;18055,45
471;4001;203214;15037,08;18194,87;21,00002128;3157,79;18194,87
472;4001;203276;25709,83;31108,89;20,99998327;5399,06;31108,89
473;4001;202915;2200;2662;21;462;2662
474;4001;202940;14000;16940;21;2940;16940
475;4301;3000560;13110,18;15863,32;21,00001678;2753,14;15863,32
475;4303;3000560;1169,45;1415,03;20,9996152;245,58;1415,03
476;4001;202838;8326,04;10074,51;21,00001922;1748,47;10074,51
477;4001;202767;11525,68;13946,09;21,00014923;2420,41;13946,09
478;4001;202768;16472,38;17831,57;8,251327373;1359,19;17831,57
479;4001;202775;841,51;1018,23;21,00034462;176,72;1018,23
480;4001;202802;1537,09;1859,88;21,00007156;322,79;1859,88
481;4001;202991;485,3;587,21;20,99938183;101,91;587,21
482;4001;202993;1422,82;1721,61;20,99984538;298,79;1721,61
483;4001;202994;14253,32;15146,53;6,266680324;893,21;15146,53
484;4001;203177;11889,71;14386,55;21,00000757;2496,84;14386,55
485;4001;203299;13134,81;13793,12;5,011949164;658,31;13793,12
486;4001;203320;419,99;508,19;21,00050001;88,2;508,19
487;4001;202746;3905,28;4725,39;21,00003073;820,11;4725,39
488;4001;202830;5403,14;6537,8;21,0000111;1134,66;6537,8
489;4001;202913;5592,06;6766,39;20,99995351;1174,33;6766,39
490;4001;203240;5222,62;6319,37;20,99999617;1096,75;6319,37
491;4001;203260;7558,62;9145,93;20,99999735;1587,31;9145,93
492;4001;202708;15481,89;18733,09;21,00002002;3251,2;18733,09
493;4001;202851;28920,27;34993,53;21,00001141;6073,26;34993,53
494;4001;203119;11320;13697,2;21;2377,2;13697,2
495;4001;203120;4980;6025,8;21;1045,8;6025,8
496;4301;3000727;107446,6;130010,39;21,00000372;22563,79;130010,39
497;4001;202700;30525;36935,25;21;6410,25;36935,25
498;4001;202860;32321;39108,41;21;6787,41;39108,41
499;4001;202972;4800,35;5808,42;20,99992709;1008,07;5808,42
500;4001;203019;4250;5142,5;21;892,5;5142,5
501;4001;203124;24889,22;30115,96;21,00001527;5226,74;30115,96
502;4001;203221;3246,7;3928,51;21,0000924;681,81;3928,51
503;4001;203231;3966;4798,86;21;832,86;4798,86
504;4001;203001;3971,58;4805,61;20,99995468;834,03;4805,61
505;4001;203018;3971,58;4805,61;20,99995468;834,03;4805,61
506;4001;202789;23000;27830;21;4830;27830
507;4001;202821;7500;9075;21;1575;9075
508;4001;202939;7000;8470;21;1470;8470
509;4001;203095;9000;10890;21;1890;10890
510;4001;202752;1820;2202,2;21;382,2;2202,2
511;4001;202756;910;1101,1;21;191,1;1101,1
512;4001;202835;910;1101,1;21;191,1;1101,1
513;4301;203283;114923,61;139057,5681;21;24133,9581;139057,5681
514;4301;203282;167855,58;203105,2518;21;35249,6718;203105,2518
515;4301;203281;269606,82;326224,2522;21;56617,4322;326224,2522
516;4301;203262;62776,78;75959,9038;21;13183,1238;75959,9038
517;4001;202709;14444,48;17477,82;20,99999446;3033,34;17477,82
518;4001;202848;15938,75;19285,89;21,00001569;3347,14;19285,89
519;4001;202907;2387,8;2889,24;21,00008376;501,44;2889,24
520;4001;202979;13739,4;16624,67;20,99997089;2885,27;16624,67
521;4001;203020;7792,95;9429,47;21,00000642;1636,52;9429,47
522;4001;203147;2319,2;2806,23;20,99991376;487,03;2806,23
523;4001;202745;20736;25090,56;21;4354,56;25090,56
524;4001;203088;978;1183,38;21;205,38;1183,38
525;4001;203233;7344;8886,24;21;1542,24;8886,24
526;4001;203266;3337,5;4038,38;21,00014981;700,88;4038,38
527;4001;203102;6000;7260;21;1260;7260
528;4001;202707;9793,39;11850;20,9999806;2056,61;11850
529;4001;202712;7090,06;8579;21,00038646;1488,94;8579
530;4001;202714;10015,78;12119;20,99906348;2103,22;12119
531;4001;202852;1631,4;1974;21,00036778;342,6;1974
532;4001;203205;2816,49;3408;21,00167229;591,51;3408
533;4001;203351;12228;14795,88;21;2567,88;14795,88
534;4301;3000633;13462,79;16289,98;21,00003045;2827,19;16289,98
534;4303;3000633;1965,06;2377,72;20,99986769;412,66;2377,72
535;4301;202863;64696,52;78282,79;21,00000124;13586,27;78282,79
536;4301;203190;3443,37;4166,4777;21;723,1077;4166,4777
537;4301;202683;25346,31;30669,04;21,00001933;5322,73;30669,04
538;4301;3000481;8974,77;10859,47;20,99998106;1884,7;10859,47
539;4301;202753;2787,84;3373,29;21,00012913;585,45;3373,29
540;4301;202954;1413,59;1710,44;20,99972411;296,85;1710,44
541;4301;202955;453,08;548,23;21,00070628;95,15;548,23
542;4303;202685;353061,93;427204,94;21,00000133;74143,01;427204,94
543;4301;202688;-108634,44;-131447,67;20,99999779;-22813,23;-131447,67
544;4301;202687;107238,22;129758,25;21,00000354;22520,03;129758,25
545;4301;202674;128503,98;155489,82;21,00000327;26985,84;155489,82
546;4301;202864;108313,92;131059,84;20,99999705;22745,92;131059,84
547;4301;202930;51309,32;62084,28;21,00000546;10774,96;62084,28
548;4301;3000494;7611,66;9210,11;21,00001839;1598,45;9210,11
549;4301;3000631;93526,85;113167,49;21,0000016;19640,64;113167,49
550;4301;3000634;42772,61;51754,85;20,99998106;8982,24;51754,85
545;4303;202674;1631,07;1973,59;20,99971185;342,52;1973,59
546;4303;202864;1398,06;1691,65;20,99981403;293,59;1691,65
547;4303;202930;699,03;845,83;21,0005293;146,8;845,83
549;4303;3000631;1631,07;1973,59;20,99971185;342,52;1973,59
550;4303;3000634;932,04;1127,77;21,00017167;195,73;1127,77
551;4301;203285;82283,28;99562,7688;21;17279,4888;99562,7688
552;4301;3000636;5178;6265,38;21;1087,38;6265,38
552;4303;3000636;569,58;689,19;20,99968398;119,61;689,19
553;4301;202673;9130,37;11047,75;21,00002519;1917,38;11047,75
554;4001;202820;2000;2420;21;420;2420
555;4001;203104;4324,22;5232,31;21,00008788;908,09;5232,31
556;4001;202914;9500;11495;21;1995;11495
557;4001;202790;3000;3630;21;630;3630
